==================================================
Starting SLURM job
Job ID: 3503130
Cut:    0.98287788 
Folder: 19 
/var/spool/slurm/slurmd/job3503130/slurm_script: line 21:  3529 Illegal instruction     (core dumped) python sensitivity_studies_v1.py 0.98287788 19
== The End ==
