==================================================
Starting SLURM job
Job ID: 3503122
Cut:    0.81297598 
Folder: 11 
/var/spool/slurm/slurmd/job3503122/slurm_script: line 21:  1031 Illegal instruction     (core dumped) python sensitivity_studies_v1.py 0.81297598 11
== The End ==
