==================================================
Starting SLURM job
Job ID: 3503129
Cut:    0.96580442 
Folder: 18 
/var/spool/slurm/slurmd/job3503129/slurm_script: line 21:  3495 Illegal instruction     (core dumped) python sensitivity_studies_v1.py 0.96580442 18
== The End ==
