==================================================
Starting SLURM job
Job ID: 3503126
Cut:    0.90862182 
Folder: 15 
/var/spool/slurm/slurmd/job3503126/slurm_script: line 21:  1975 Illegal instruction     (core dumped) python sensitivity_studies_v1.py 0.90862182 15
== The End ==
